{
  "version": 2021092000,
  "url": "https://debconf23.debconf.org/schedule/pentabarf.xml",
  "title": "DebConf 23",
  "start": "2023-09-10",
  "end": "2023-09-17",
  "metadata": {
    "links": [
      {
        "url": "https://debconf23.debconf.org/",
        "title": "Website"
      }
    ]
  }
}
